<svg version="1.1" id="Layer" xmlns="http://www.w3.org/2000/svg" x="0" y="0" viewBox="0 0 132 132" xml:space="preserve">
  <style>
    .cls-1,.cls-2{fill:#767676;fill-rule:evenodd}.cls-2{fill:#9b9b9b}
  </style>
  <path class="cls-1" d="M128.5 112.56l-26.95-26.95a55.06 55.06 0 10-16.94 16.94l27 27a12 12 0 0016.94-16.94zm-3.63 13.31a6.87 6.87 0 01-9.67 0L86.76 97.43a2.58 2.58 0 00-1.82-.76 2.53 2.53 0 00-1.46.46 49.93 49.93 0 01-63.71-76.36 49.93 49.93 0 0176.36 63.71 2.56 2.56 0 00.3 3.28l28.44 28.44a6.87 6.87 0 010 9.67z" transform="translate(0 -1)"/>
  <path class="cls-2" d="M66 17.24a2.57 2.57 0 00-1.38 5 35.17 35.17 0 11-19 0 2.58 2.58 0 00-1.39-5A40.66 40.66 0 0023.1 31.5a40 40 0 00-8.34 24.57A40.3 40.3 0 1066 17.24z" transform="translate(0 -1)"/>
  <path class="cls-2" d="M55.07 56.07a2.57 2.57 0 00-2 1l-8.3 10.78-9.42-24.55a2.57 2.57 0 00-4.8 1.84L41.61 74a2.55 2.55 0 002 1.62 2.58 2.58 0 002.41-1l9-11.76 9 11.76a2.56 2.56 0 002 1h.37a2.57 2.57 0 002-1.62l11.2-28.86a2.57 2.57 0 00-4.81-1.84l-9.41 24.55-8.26-10.78a2.58 2.58 0 00-2.04-1z" transform="translate(0 -1)"/>
  <path class="cls-1" d="M55.07 20.9a2.58 2.58 0 10-2.57-2.57 2.58 2.58 0 002.57 2.57z" transform="translate(0 -1)"/>
</svg>
